module gitlab.com/pcanilho/rocket.chat.go.sdk

go 1.15

require (
	github.com/Jeffail/gabs v1.4.0
	github.com/gopackage/ddp v0.0.0-20170117053602-652027933df4
	github.com/onsi/ginkgo v1.14.1 // indirect
	github.com/onsi/gomega v1.10.2 // indirect
	github.com/stretchr/testify v1.6.1
	golang.org/x/net v0.0.0-20200904194848-62affa334b73 // indirect
)
